{
	"id": "ef153f68-e9f5-4e0d-84c8-77517bf0ff90",
	"name": "XoriantPostmanTraining",
	"values": [
		{
			"key": "AppURL",
			"value": "https://restcountries-v1.p.rapidapi.com",
			"enabled": true
		},
		{
			"key": "AppKey",
			"value": "c947e56cdfmsh0fde8bab5543a19p1ca664jsnb076962c0499",
			"enabled": true
		}
	],
	"_postman_variable_scope": "environment",
	"_postman_exported_at": "2021-03-14T05:14:15.896Z",
	"_postman_exported_using": "Postman/8.0.7"
}