{
	"info": {
		"_postman_id": "13cee620-510c-4279-a2ec-28f42be8d4a9",
		"name": "UseEnvVars",
		"schema": "https://schema.getpostman.com/json/collection/v2.1.0/collection.json"
	},
	"item": [
		{
			"name": "GetCountryDetails",
			"event": [
				{
					"listen": "test",
					"script": {
						"exec": [
							"pm.test(\"Confirm GetCountries URL is returning STATUS OK\",function(){\r",
							"\r",
							"    pm.response.to.have.status(200);\r",
							"});"
						],
						"type": "text/javascript"
					}
				}
			],
			"request": {
				"method": "GET",
				"header": [
					{
						"key": "x-rapidapi-key",
						"value": "{{AppKey}}",
						"type": "text"
					}
				],
				"url": {
					"raw": "{{AppURL}}/name/India",
					"host": [
						"{{AppURL}}"
					],
					"path": [
						"name",
						"India"
					]
				}
			},
			"response": []
		}
	]
}